


<html>
    <head>
        <meta charset="utf-8">
        <meta http-equiv="X-UA-Compatible" content="IE=edge">
        <title> Virtual Labs </title>
        <!-- Tell the browser to be responsive to screen width -->
        <meta content="width=device-width, initial-scale=1, maximum-scale=1, user-scalable=no" name="viewport">
        <!-- Bootstrap 3.3.6 -->
        <link rel="stylesheet" href="../../bootstrap/css/bootstrap.css">
        <!-- Font Awesome -->
        <link rel="stylesheet" href="https://cdnjs.cloudflare.com/ajax/libs/font-awesome/4.5.0/css/font-awesome.min.css">
        <!-- Theme style -->
        <link rel="stylesheet" href="../../dist/css/AdminLTE.css">
        <!-- AdminLTE Skins. Choose a skin from the css/skins folder instead of downloading all of them to reduce the load. -->
        <link rel="stylesheet" href="../../dist/css/skins/_all-skins.min.css">
        <script>
            window.onload = function () {
                document.getElementById("posttest").className = "active treeview";
            }
        </script>
    </head>

    <body class="hold-transition skin-blue sidebar-mini">
        <!--Navigation Bar-->
<div class="navbar navbar-default">
  <div class="container">
    <div class="navbar-header">
      <button type="button" class="navbar-toggle" data-toggle="collapse" data-target="#navbar-ex-collapse">
        <span class="sr-only">Toggle navigation</span>
        <span class="icon-bar"></span>
        <span class="icon-bar"></span>
        <span class="icon-bar"></span>
      </button>
      <a class="navbar-brand" href="http://iitb.ac.in"><span><img src="images/iitb_logo_30dpi.png"></span></a>
    </div>
    <div class="collapse navbar-collapse" id="navbar-ex-collapse">
      <ul class="nav navbar-nav navbar-right">
        <li class="active">
          <a href="http://vlabs.iitb.ac.in/vlabs-dev/">HOME</a>
        </li>
        <li class="active">
          <a href="http://vlabs.iitb.ac.in/vlabs-dev/labs/labs.html">LABS</a>
        </li>
        <!--<li class="active">
          <a href="http://vlabs.iitb.ac.in/vlabs-dev/Syllabus_Matrix/syllabus.html">SYLLABUS</a>
        </li>
        <li class="active">
          <a href="http://vlabs.iitb.ac.in/vlabs-dev/L1-Form/idea.php">CONTRIBUTE</a>
        </li>
        <li class="active">
          <a href="http://vlabs.iitb.ac.in/vlabs-dev/vlab_tool/index.php ">LAB TOOL</a>
        </li>
        <li class="active">
          <a href="http://vlabs.iitb.ac.in/vlabs-dev/wiki/doku.php">WIKI</a>
        </li> -->
        <li class="active">
          <a href="http://vlabs.iitb.ac.in/gitlab/">GITLAB</a>
        </li>
      </ul>
    </div>
  </div>
</div>
        
        <div class="wrapper">
        	<header class="main-header">
        <!-- Logo -->
        <a href="../index.html" class="logo">
        <p align="center" style="font-size:1em;"><b></b></p>
    </a>
        <!-- Header Navbar: style can be found in header.less -->
        <nav class="navbar navbar-static-top">
          <!-- Sidebar toggle button-->
          <a href="#" class="sidebar-toggle" data-toggle="offcanvas" role="button">
        <span class="sr-only">Toggle navigation</span>
      </a>
          <section class="content-header">
            <ol class="breadcrumb">
              <li>
                <a href="../index.html"><i class="fa fa-dashboard"></i>Analysis and Design of Algorithms</a>
              </li>
              <li>
                <a href="#">Divide and Conquer Algorithm</a>
              </li>
              <li class="active">Post Test</li>
            </ol>
          </section>
        </nav>
      </header>
            
      <!-- Left side column. contains the logo and sidebar -->
      <aside class="main-sidebar">
        <!-- sidebar: style can be found in sidebar.less -->
        <section class="sidebar">
          <!-- search form -->
          <form action="#" method="get" class="sidebar-form">
            <div class="input-group"></div>
          </form>
          <!-- /.sear ch form -->
          <!-- sidebar menu: : style can be found in sidebar.less -->
            <ul class="sidebar-menu">
                <li class="treeview" id="aim">
                    <a href="index.html">
                        <i class="fa fa-files-o"></i> <span>Aim</span>

                    </a>
                </li>
                <li class="treeview" id="theory">
                    <a href="theory.html" >
                        <i class="fa fa-files-o"></i>
                        <span>Theory</span>
                    </a>
                </li>
             <!--   <li class="treeview" id="numerical">
                    <a href="numerical.php">
                        <i class="fa fa-laptop"></i>
                        <span>Numerical</span>
                        <span class="pull-right-container">
                        </span>
                    </a>
                </li>
                <li class="treeview" id="program">
                    <a href="program.php">
                        <i class="fa fa-laptop"></i>
                        <span>Program</span>
                        <span class="pull-right-container">
                        </span>
                    </a>
                </li> -->
                <li class="treeview" id="pretest">
                    <a href="pretest.html">
                        <i class="fa fa-files-o"></i> <span>Pre Test</span>

                    </a>
                </li>
                
                <li class="treeview" id="procedure">
                    <a href="procedure.html">
                        <i class="fa fa-files-o"></i> <span>Procedure</span>
                    </a>
                </li>
                <li class="treeview" id="simulation">
                    <a href="simulation.html">
                        <i class="fa fa-laptop"></i>
                        <span>Simulation</span>
                        <span class="pull-right-container">
                        </span>
                    </a>
                </li>

               <li class="treeview" id="program">
                    <a href="result.html">
                        <i class="fa fa-laptop"></i>
                        <span>Result</span>
                        <span class="pull-right-container">
                        </span>
                    </a>
                </li>
                
                <li class="treeview" id="posttest">
                    <a href=" posttest.html">
                        <i class=" fa fa-files-o">
                    </i>
                    <span>Post Test</span>
                    <span class="pull-right-container">
                    </span>
                    </a>
                </li>
                <li class="treeview" id="ref">
                    <a href="references.html">
                        <i class="fa fa-files-o"></i>
                        <span>References</span>
                        <span class="pull-right-container">
                        </span>
                    </a>
                </li>
            </ul>
        </section>
        <!-- /.sidebar -->
      </aside>

   
            <div class="content-wrapper">
            <!-- Content Header (Page header) -->
                <section class="content-header">
              <center style= "font-size: 1.7em;";> 
                     Quicksort<!-- Write experiment name here --> 
                            </center>
                            </section>
                    <!-- Main content -->
                    <!--<section class="content-header">
                <!-h1 align="center">
                   Familiarization with laboratory equipment  
                </h1>-->
                </section>
                    <!-- Main content -->
                    <section class="content">
                    <p style="font-size:150%; margin-top:2%">
                    Post Test 
                    </p>
                    <p style="font-size:130%; margin-top:2%">
                    <form style="font-size:20px">
                     <b>   Q1.What is the advantage of recursive approach than an iterative approach?</b>
                        <br>
                        A &nbsp;<input type="radio" name="q1" value="watt" onclick="ans1();"> consumes more memory<br>
                        B &nbsp;<input type="radio" name="q1" value="watt" onclick="ans1();"> less code and easy to implement<br>
                        C &nbsp;<input type="radio" name="q1" value="watt" onclick="ans1();"> more code has to be written<br>
                        D &nbsp;<input type="radio" name="q1" value="watt" onclick="ans1();"> consumes less memory<br>
                    </form>
                    <div id="ans1" style="display:none;color:blue;font-size:20px">Ans is B</div>
                    <br>
                    <br>
                    <form style="font-size:20px">
                       <b> Q2.Given an array arr = {45,77,89,90,94,99,100} and key = 100; What are the mid values(corresponding array elements) generated in the first and second iterations?</b>
                
                        <br>
                        A &nbsp;<input type="radio" name="q2" onclick="ans2();"> 90 and 93<br>
                        B &nbsp;<input type="radio" name="q2" onclick="ans2();"> 91 and 89<br>
                        C &nbsp;<input type="radio" name="q2" onclick="ans2();"> 99 and 97<br>
                        D &nbsp;<input type="radio" name="q2" onclick="ans2();"> 90 and 99<br>
                
                    </form>
                    <div id="ans2" style="display:none;color:blue;font-size:20px">Ans is D</div>
                    <br>
                    <br>
                    <form style="font-size:20px">
                       <b> Q3.Which of the following is not an application of binary search? </b>              
                        <br>
                        A &nbsp;<input type="radio" name="q3" onclick="ans3();"> Union of intervals<br>
                        B &nbsp;<input type="radio" name="q3" onclick="ans3();"> Debugging<br>
                        C &nbsp;<input type="radio" name="q3" onclick="ans3();"> To search in unordered list<br>
                        D &nbsp;<input type="radio" name="q3" onclick="ans3();"> To find the lower/upper bound in an ordered sequence<br>
                                      
                    </form>
                    <div id="ans3" style="display:none;color:blue;font-size:20px">Ans is C</div>
                    <br>
                    <br>
                    <form style="font-size:20px">

                      <b>  Q4.Quick sort is a space-optimised version of ____</b>
                        
                        <br>
                        A &nbsp;<input type="radio" name="q4" onclick="ans4();"> Bubble Sort<br>
                        B &nbsp;<input type="radio" name="q4" onclick="ans4();"> Binary Tree Sort<br>
                        C &nbsp;<input type="radio" name="q4" onclick="ans4();"> Insertion Sort<br>
                        D &nbsp;<input type="radio" name="q4" onclick="ans4();"> Selection Sort<br>           
                    </form>
                    <div id="ans4" style="display:none;color:blue;font-size:20px">Ans is B</div>
                    <br>
                    <br>
                    <form style="font-size:20px">
                    <b>    Q5.Which is the safest method to choose a pivot element?</b>
                        <br>
                        A &nbsp;<input type="radio" name="q5" onclick="ans5();"> choosing the last element as pivot<br>
                        B &nbsp;<input type="radio" name="q5" onclick="ans5();"> choosing a random element as pivot<br>
                        C &nbsp;<input type="radio" name="q5" onclick="ans5();"> choosing the first element as pivot<br>
                        D &nbsp;<input type="radio" name="q5" onclick="ans5();"> median-of-three partitioning method<br>
                    </form>
                    <div id="ans5" style="display:none;color:blue;font-size:20px">Ans is B</div>
                    <br>
                    <br>
                    <form style="font-size:20px">

                      <b>  Q6.A machine needs a minimum of 200 sec to sort 1000 elements by Quick sort. The minimum time needed to sort 200 elements will be approximately </b>
                        <br>
                        A &nbsp;<input type="radio" name="q6" onclick="ans6();"> 31.11sec<br>
                        B &nbsp;<input type="radio" name="q6" onclick="ans6();"> 31sec<br>
                        C &nbsp;<input type="radio" name="q6" onclick="ans6();"> 60.2sec<br>
                        D &nbsp;<input type="radio" name="q6" onclick="ans6();"> 20sec<br>                       
                
                    </form>
                    <div id="ans6" style="display:none;color:blue;font-size:20px">Ans is A</div>
                    <br>
                    <br>
                    <form style="font-size:20px">

                     <b>   Q7.Which one of the following sorting algorithm is best suited to sort an array of 1 million elements?</b>
                        <br>
                        A &nbsp;<input type="radio" name="q7" onclick="ans7();"> Merge Sort<br>
                        B &nbsp;<input type="radio" name="q7" onclick="ans7();"> Bubble Sort<br>
                        C &nbsp;<input type="radio" name="q7" onclick="ans7();"> Insertion Sort<br>
                        D &nbsp;<input type="radio" name="q7" onclick="ans7();"> Quick Sort<br>
                       
                
                    </form>
                    <div id="ans7" style="display:none;color:blue;font-size:20px">Ans is D</div>
                    <br>
                    <br>
                    <form style="font-size:20px">
                       <b> Q8.What is the time complexity of Uniform Binary Search?</b>
                        <br>
                        A &nbsp;<input type="radio" name="q8" onclick="ans8();"> O(logn)<br>
                        B &nbsp;<input type="radio" name="q8" onclick="ans8();"> O(n)<br>
                        C &nbsp;<input type="radio" name="q8" onclick="ans8();"> O(nlogn)<br>
                        D &nbsp;<input type="radio" name="q8" onclick="ans8();"> O(n<sup>2</sup>)<br>
                       
                
                    </form>
                    <div id="ans8" style="display:none;color:blue;font-size:20px">Ans is A</div>
                    <br>
                    <br>
                    <form style="font-size:20px">
                      <b>  Q9.Given an input arr = {2,5,7,99,899}; key = 899; What is the level of recursion?    </b>           
                        <br>
                        A &nbsp;<input type="radio" name="q3" onclick="ans3();"> 3<br>
                        B &nbsp;<input type="radio" name="q3" onclick="ans3();"> 8<br>
                        C &nbsp;<input type="radio" name="q3" onclick="ans3();"> 4<br>
                        D &nbsp;<input type="radio" name="q3" onclick="ans3();"> 7<br>
                                      
                    </form>
                    <div id="ans3" style="display:none;color:blue;font-size:20px">Ans is A</div>
                    <br>
                    <br>
                    <form style="font-size:20px">
                       <b> Q10. The given array is arr = {2,3,4,1,6}. What are the pivots that are returned as a result of subsequent partitioning? </b>         
                        <br>
                        A &nbsp;<input type="radio" name="q3" onclick="ans3();"> 2 and 6<br>
                        B &nbsp;<input type="radio" name="q3" onclick="ans3();"> 3 and 1<br>
                        C &nbsp;<input type="radio" name="q3" onclick="ans3();"> 1 and 3<br>
                        D &nbsp;<input type="radio" name="q3" onclick="ans3();"> 6 and 2<br>
                                      
                    </form>
                    <div id="ans3" style="display:none;color:blue;font-size:20px">Ans is C</div>
                   

                    <!--Theory of experiment -->
                    </p>
                </section>
            <!-- /.content -->
            </div>
            <footer class="main-footer">
                <h4 align="center">Lab contributed by IIT Roorkee <!-- Institute Name --> </h4>
            </footer>
        </div>
        
    </body>

     <script>
        function ans1()
        {
            var div1 = document.getElementById("ans1");
            div1.style.display = "inline";
        }
        function ans2() {
            var div1 = document.getElementById("ans2");
            div1.style.display = "inline";
        }
        function ans3() {
            var div1 = document.getElementById("ans3");
            div1.style.display = "inline";
        }
        function ans4() {
            var div1 = document.getElementById("ans4");
            div1.style.display = "inline";
        }
        function ans5() {
            var div1 = document.getElementById("ans5");
            div1.style.display = "inline";
        }
        function ans6() {
            var div1 = document.getElementById("ans6");
            div1.style.display = "inline";
        }
         function ans7() {
            var div1 = document.getElementById("ans7");
            div1.style.display = "inline";
        }
         function ans8() {
            var div1 = document.getElementById("ans8");
            div1.style.display = "inline";
        }
         
   </script> 
        
    </body>
</html>

<!-- ./wrapper -->
<!-- jQuery 2.2.3 -->
<script src="../../plugins/jQuery/jquery-2.2.3.min.js"></script>
<!-- jQuery UI 1.11.4 -->
<script src="https://code.jquery.com/ui/1.11.4/jquery-ui.min.js"></script>
<!-- Bootstrap 3.3.6 -->
<script src="../../bootstrap/js/bootstrap.min.js"></script>
<!-- Slimscroll -->
<script src="../../plugins/slimScroll/jquery.slimscroll.min.js"></script>
<!-- FastClick -->
<script src="../../plugins/fastclick/fastclick.js"></script>
<!-- AdminLTE App -->
<script src="../../dist/js/app.min.js"></script>