#include <iostream> 
#include <vector> 
#include <algorithm> 
using namespace std; 
  
void countSort(vector <int>& arr) 
{ 
    int max = *max_element(arr.begin(), arr.end()); 
    int min = *min_element(arr.begin(), arr.end()); 
    int range = max - min + 1; 
      
    vector<int> count(range), output(arr.size()); 
    for(int i = 0; i < arr.size(); i++) 
        count[arr[i]-min]++; 
          
    for(int i = 1; i < count.size(); i++) 
           count[i] += count[i-1]; 
    
    for(int i = arr.size()-1; i >= 0; i--) 
    {  
         output[ count[arr[i]-min] -1 ] = arr[i];  
              count[arr[i]-min]--;  
    } 
      
    for(int i=0; i < arr.size(); i++) 
            arr[i] = output[i]; 
} 
  
void printArray(vector <int> & arr)  
{  
    for (int i=0; i < arr.size(); i++)  
        cout << arr[i] << " ";   
} 
  
int main() 
{ 
    int size;
    cout<<"Enter Size:"<<endl;
    cin>>size;
    vector<int> arr[size];
    cout<<"Enter Array:"<<endl;
    for (int i=0; i < size; i++)
    cin>>arr[i];
    countSort (arr); 
    printArray (arr); 
    return 0; 
} 